<?xml version="1.0" encoding="utf-8"?>
<!-- Generator: Adobe Illustrator 25.4.0, SVG Export Plug-In . SVG Version: 6.00 Build 0)  -->
<svg version="1.1" id="Слой_1" xmlns="http://www.w3.org/2000/svg" xmlns:xlink="http://www.w3.org/1999/xlink" x="0px" y="0px"
	 viewBox="0 0 81 81" style="enable-background:new 0 0 81 81;" xml:space="preserve" width="81" height="81">
<style type="text/css">
	.st0{fill-rule:evenodd;clip-rule:evenodd;fill:#FFFFFF;}
	.st1{fill-rule:evenodd;clip-rule:evenodd;fill:#FFB916;}
</style>
<path class="st0" d="M9,21.5C9,15.2,14.3,10,20.8,10h11.8c2.2,0,3.9,1.7,3.9,3.8c0,2.1-1.8,3.8-3.9,3.8H20.8c-2.2,0-3.9,1.7-3.9,3.8
	v30.8h47.2V38.8c0-2.1,1.8-3.8,3.9-3.8s3.9,1.7,3.9,3.8v17.3c0,2.1-1.8,3.8-3.9,3.8H12.9C10.8,60,9,58.3,9,56.2V21.5z"/>
<path class="st1" d="M54.8,7.1c1.6,1.5,1.6,3.9,0,5.4l-5.2,5l5.2,5c1.6,1.5,1.6,3.9,0,5.4c-1.6,1.5-4.1,1.5-5.7,0l-8-7.7
	c-1.6-1.5-1.6-3.9,0-5.4l8-7.7C50.7,5.6,53.3,5.6,54.8,7.1z"/>
<path class="st1" d="M65.2,7.1c1.6-1.5,4.1-1.5,5.7,0l8,7.7c1.6,1.5,1.6,3.9,0,5.4l-8,7.7c-1.6,1.5-4.1,1.5-5.7,0
	c-1.6-1.5-1.6-3.9,0-5.4l5.2-5l-5.2-5C63.6,11,63.6,8.6,65.2,7.1z"/>
<path class="st0" d="M1,56c0-2.2,1.8-4,3.9-4h71.1c2.2,0,3.9,1.8,3.9,4v4c0,6.6-5.3,12-11.8,12H12.9C6.3,72,1,66.6,1,60V56z M8.9,60
	c0,2.2,1.8,4,4,4h55.3c2.2,0,3.9-1.8,3.9-4H8.9z"/>
</svg>
